<?xml version="1.0" encoding="utf-8"?>
<!-- Generator: Adobe Illustrator 25.2.3, SVG Export Plug-In . SVG Version: 6.00 Build 0)  -->
<svg version="1.1" id="Layer_1" xmlns="http://www.w3.org/2000/svg" xmlns:xlink="http://www.w3.org/1999/xlink" x="0px" y="0px"
	 viewBox="0 0 127 127" style="enable-background:new 0 0 127 127;" xml:space="preserve">
<style type="text/css">
	.st0{fill:#000853;}
	.st1{fill:#FFFFFF;}
</style>
<rect x="-2" y="-2.3" class="st0" width="131" height="131"/>
<path class="st1" d="M65.1,11.9C41.1,11,20.9,29.7,20,53.7c-0.8,22.1,15,41.2,36.9,44.6c0.6,0.1,0.9,0.6,0.9,1.2
	c0,0.1,0,0.2-0.1,0.3l-6.5,13.3c0,0-0.2,0.3-0.3,0.6c-0.2,0.5,0,1.2,0.6,1.4c0.2,0.1,0.5,0.1,0.7,0c13.5-4.2,54.8-25.6,54.8-60.4
	C107,31.8,88.1,12.7,65.1,11.9z M82.1,33.5c-0.1,0.1-0.2,0.2-0.3,0.3L69.7,47.6c0,0-0.2,0.2-0.3,0.4c-0.4,0.6,0,1.4,0.9,1.4h5
	c0.8,0.1,1.2,0.8,0.8,1.4c-0.1,0.1-0.2,0.3-0.3,0.4l-9,10.1c-0.1,0.1-0.2,0.2-0.3,0.4c-0.4,0.6,0.1,1.3,0.9,1.4h3.2
	c0.4,0,0.8,0.2,1,0.6c0.2,0.4,0.1,0.8-0.3,1c-0.1,0.1-0.3,0.2-0.3,0.2L50.3,80.5c-0.1,0.1-0.3,0.2-0.4,0.3c-0.2,0.1-0.5,0.1-0.7,0
	c-0.2-0.1-0.3-0.3-0.2-0.5c0-0.1,0.2-0.4,0.2-0.4l5.7-11.8l0.2-0.3c0.4-0.8,0-1.4-0.9-1.5H50c-0.2,0-0.3,0-0.5,0
	c-0.7-0.1-1.1-0.7-0.8-1.3c0.1-0.1,0.2-0.4,0.2-0.4L56,52.7c0,0,0.1-0.1,0.1-0.2c0.4-0.7-0.1-1.4-1-1.4h-4.7c-0.6,0-1-0.3-1.1-0.8
	c0-0.2,0-0.5,0.2-0.7l2.2-3.8l7.1-12.5l0.2-0.3c0.4-0.7,1-1,1.8-1h20.1h0c0.2,0,0.4,0,0.6,0C82.2,32.3,82.5,32.9,82.1,33.5z"/>
</svg>
