/*! callstats  version = 3.73.2 2021-07-16 01-56-06  */

/*! regenerator-runtime -- Copyright (c) 2014-present, Facebook, Inc. -- license (MIT): https://github.com/facebook/regenerator/blob/main/LICENSE */
