{
  "mediaPlayerConfig": {
    "default": {
      "notes": "Incase server side client level flag audienceViewFailOverSeq is null or not available use below default value.",
      "config": "ncpull",
      "validConfigurations": "ncpull,ncpush,mcpush",
      "timeouts": {
        "switch": 10,
        "connecting": 10,
        "loading": 10
      }
    },
    "mcpush": {
      "esConfigName": "MCpush",
      "streamName": {
        "streamA": {
          "prefix": "",
          "fhvideoConst": "_1_fhvideo1_",
          "postFix": "_A"
        },
        "streamB": {
          "prefix": "",
          "fhvideoConst": "_1_fhvideo1_",
          "postFix": "_B"
        }
      },
      "streamAccountId": "sdRhXz"
    },    
    "ncpull": {
      "esConfigName": "NCpull",
      "server": {
        "websocket": "wss://h5live.nanocosmos.de:443/h5live/stream",
        "hls": "https://h5live.nanocosmos.de:443/h5live/http/playlist.m3u8"
      },
      "rtmpURL": {
        "urlA": "rtmp://fmsliveedgea.on24.com/livestreama",
        "urlB": "rtmp://fmsliveedgeb.on24.com/livestreamb"
      },
      "streamName": {
        "streamA": {
          "prefix": "",
          "fhvideoConst": "_1_fhvideo1_",
          "postFix": "_A"
        },
        "streamB": {
          "prefix": "",
          "fhvideoConst": "_1_fhvideo1_",
          "postFix": "_B"
        }
      }
    },
    "ncpush": {
      "esConfigName": "NCpush",
      "server": {
        "websocket": "wss://h5live.nanocosmos.de:443/h5live/stream",
        "hls": "https://h5live.nanocosmos.de:443/h5live/http/playlist.m3u8"
      },
      "rtmpURL": {
        "urlA": "rtmp://bintu-play.nanocosmos.de:1935/play",
        "urlB": "rtmp://bintu-play.nanocosmos.de:1935/play"
      },
      "streamName": {
        "streamA": {
          "prefix": "Ss5Wi-",
          "fhvideoConst": "_1_fhvideo1_",
          "postFix": "_A"
        },
        "streamB": {
          "prefix": "Ss5Wi-",
          "fhvideoConst": "_1_fhvideo1_",
          "postFix": "_B"
        }
      }
    }
  },
  "pexip": {
    "oldSystem": {
      "serverAddress": "webrtc.fav.on24.com",
      "turn": {
        "turnServerURL": "turn:turn.fav.on24.com:443?transport=tcp",
        "id": "on24user",
        "watchword": "nev2Eni@"
      },
      "turns": {
        "turnsServerURL": "turns:turn.fav.on24.com:443?transport=tcp",
        "id": "on24user",
        "watchword": "nev2Eni@"
      },
      "ssLocalURL": "https://localon24.com",
      "wsURL": "wss://localon24.com"
    },
    "newSystem": {
      "serverAddress": "webrtc2.fav.on24.com",
      "turn": {
        "turnServerURL": "turn:turn2.fav.on24.com:443?transport=tcp",
        "id": "on24user",
        "watchword": "nev2Eni@"
      },
      "turns": {
        "turnsServerURL": "turns:turn2.fav.on24.com:443?transport=tcp",
        "id": "on24user",
        "watchword": "nev2Eni@"
      }
    },
    "enableUnmutePresenter": true,
    "bandwidthIn": 800,
    "bandwidthOut": 1500,
    "dataRate": {
      "default": "option2",
      "values": {
        "option1": { "value": 0, "text": "Low", "bandwidth": 500 },
        "option2": { "value": 1, "text": "Medium", "bandwidth": 1000 },
        "option3": { "value": 2, "text": "High", "bandwidth": 2500 }
      }
    }
  },
  "batchLogger": {
    "defaultTimeBeforeLog": 60000,
    "defaultMaxLogs": 10,
    "defaultMaxWindowsError": 50,
    "defaultLogLevel": "INFO",
    "maxDuplicateLogsAllowed": 10,
    "logsURL": "/utilApp/webapi/secured/eventLog",
    "kafkaEnabledLogsURL": "/utilApp/webapi/logs/presenter/batch",
    "pexipLogsURL": "/utilApp/webapi/secured/eventLog/pexip",
    "kafkaEnabledPexipLogsURL": "/utilApp/webapi/logs/presenter/pexip",
    "cloudEnabledLogsURL": "https://consolelogkafkaapigateway-1q5elx17.uc.gateway.dev/postToConsoleLog",
    "jwtGeneratorURL": "/utilApp/webapi/generate/jwttoken",
    "expirationTokenTime": 110
  },
  "aue": {
    "editServer": "api.mediaedit.on24.com",
    "microConnection": "webrtc.mediaedit.on24.com",
    "webcastUrl": "https://wcc.on24.com/webcast/previewlobby",
    "jwtESREURL": "/utilApp/webapi/generate/generic/jwttoken",
    "updateAnimationStepsURL": "https://pmelite.on24.com/secured/srvc/recording-ext/updateAnimationSteps",
    "requireAutopublishURL": "https://event.on24.com/apic/recording-ext/require-auto-publish",
    "colors": {
      "clips": 201,
      "record": 353
    },
    "actions": {
      "zoomRatio": 1.2
    },
    "pivot_when_using_mouse_wheel_zoom": "play_cursor",
    "follow_play": "yes",
    "follow_record": "yes",
    "test": "PROD env configuration.",
    "waitingModeDurationInMinutes": 120,
    "logoutTimerInMinutes": 180,
    "postLiveWaitTimeToShowRecordingToolInMinutes": 60,
    "enablePresenterMediaDownload": true
  },
  "urls": {
    "lecURL": "lec.on24.com",
    "termsURL": "https://event.on24.com/w3c/ON24-ScreenShare-Plugin-Terms-of-Use.pdf",
    "launchScreenShareURL": "https://localon24.com:5012",
    "userGuide": "//on24-prod.mindtouch.us/Public/Elite_Studio_User_Guide",
    "userGuideJapanese": "https://support.on24.com/Support/s/article/JPN-Webcast-Elite-Elite-Studio-User-Guide",
    "troubleshooting": "https://support.on24.com/Support/s/article/Webcast-Elite-Video-Presenter-Bridge-Connecting-and-Troubleshooting",
    "internationalNumbersLink": {
      "simuliveAndODRecording": "sfdcHelpPresentRedirect.html?pageCd=knowledge&context=bab_phone_numbers",
      "liveAudio": "sfdcHelpPresentRedirect.html?pageCd=knowledge&context=fab_phone_numbers",
      "liveVideoAndAudio": "sfdcHelpPresentRedirect.html?pageCd=knowledge&context=vpb_phone_numbers"
    },
    "support": "sfdcHelpPresentRedirect.html",
    "chat": "sfdcHelpPresentRedirect.html?pageCd=chat",
    "help": "sfdcHelpPresentRedirect.html?pageCd=knowledge&context=elite_studio_help",
    "helpForums": "https://support.on24.com/Support/s/article/Forums-User-Guide",
    "eliteStudioLoginPage": "https://pmelite.on24.com/presentationManager/loginTitan.jsp",
    "lobbyMediaMpdUrl": "",
    "lobbyMediaHlsUrl": "",
    "youtubeIframeApiUrl": "https://www.youtube.com/iframe_api",
    "ON24UpdatesTextUrl": "/presentationMgr/download/ON24_updates.txt"
  },
  "banners": {
    "customFontBaseUrl": "https://event.on24.com",
    "apiBaseUrl": "https://pmelite.on24.com"
  },
  "groupChat": {
    "websocket": "wss://wcc-chat.on24.com/xmpp/",
    "domain": "wcc-chat.on24.com",
    "boshServerUrl": "https://wcc-chat.on24.com/http-bind/",
    "jabberUrl": "http://jabber.org/protocol/muc"
  },
  "attendees": {
    "mediaUrl": "//event.on24.com/utils/action.html"
  },
  "storyboard": {
    "pushAnimationStep": "//event.on24.com/utils/flash/slideLoader.swf",
    "maximize": "//pm.on24.com/utils/mediaplayermaximize.html",
    "minimize": "//pm.on24.com/utils/mediaplayerminimize.html"
  },
  "freeswitch": {
    "websocket": "wss://webrtc.fsfab.on24.com:443",
    "iceServer": "turn:turn.fsfab.on24.com:443?transport=tcp",
    "esre": {
      "esreWebsocket": "wss://webrtc.mediaedit.on24.com",
      "esreIceServer": {
        "url": "turns:turn.mediaedit.on24.com:443?transport=tcp",
        "username": "on24user",
        "credential": "nev2Eni@"
      }
    }
  },
  "websocket": {
    "url": "websock.on24.com/titan/ws/presenterConnect",
    "lt": "websocklt.on24.com/titan/ws/presenterConnect"
  },
  "breakoutRooms": {
    "controlServerUrl": "https://videoservice.on24.com",
    "libCDNServerUrl": "/view/console/shared/js/breakout_room_ui/bkr.min.gz.js",
    "joinErrorTimeoutSeconds": 5,
    "clearChatLogTimeoutSeconds": 4,
    "borServiceReadyWaitSeconds": 60,
    "noOfFetchBORRetries": 2,
    "troubleshootingUrl": "https://support.on24.com/Support/s/article/Webcast-Elite-Breakout-Rooms-Troubleshooting"
  },
  "sim2liveRolloverToWebcam": {
    "minutesAllowedBeforeLiveForWebcamConnection": 45
  },
  "virtualBackgrounds": {
    "showSetupOption": true,
    "modifyPath" : false,
    "url": "/titan/webapi/virtualbackground/get",
    "borUrl": "/secured/srvc/utility/vb/get",
    "jwtGeneratorURL": "/utilApp/webapi/generate/generic/jwttoken" 
  },
  "streamChat": {
    "url": "https://vids-chat.on24.com"
  },
  "reactions": {
    "enableReactions": true
  },
  "pendojs": {
    "cdn": "https://cdn.pendo.io/agent/static/378950f0-e208-4674-72e8-b77dad48394f/pendo.js"
  }
}
