/*!
        Copyright (c) 2011, Yahoo! Inc. All rights reserved.
        Code licensed under the BSD License:
        http://developer.yahoo.com/yui/license.html
        version: 2.9.0
        */

/*!
 * Determine if an object is a Buffer
 *
 * @author   Feross Aboukhadijeh <https://feross.org>
 * @license  MIT
 */

/**
     * @fileOverview
     * @name asn1-1.0.js
     * @author Kenji Urushima kenji.urushima@gmail.com
     * @version asn1 1.0.13 (2017-Jun-02)
     * @since jsrsasign 2.1
     * @license <a href="https://kjur.github.io/jsrsasign/license/">MIT License</a>
     */

/** @license React v17.0.2
 * react-is.production.min.js
 *
 * Copyright (c) Facebook, Inc. and its affiliates.
 *
 * This source code is licensed under the MIT license found in the
 * LICENSE file in the root directory of this source tree.
 */

//! moment.js
