<?xml version="1.0" standalone="no"?>
<!DOCTYPE svg PUBLIC "-//W3C//DTD SVG 1.1//EN" "http://www.w3.org/Graphics/SVG/1.1/DTD/svg11.dtd">
<svg xmlns="http://www.w3.org/2000/svg">
<metadata>Generated by Fontastic.me</metadata>
<defs>
<font id="pmxd" horiz-adv-x="512">
<font-face font-family="pmxd" units-per-em="512" ascent="480" descent="-32"/>
<missing-glyph horiz-adv-x="512" />

<glyph glyph-name="menu-bars" unicode="&#97;" d="M64 128l384 0 0 43-384 0z m0 107l384 0 0 42-384 0z m0 149l0-43 384 0 0 43z"/>
<glyph glyph-name="alert-circled" unicode="&#98;" d="M477 90l-207 349c-3 5-8 9-14 9-6 0-11-4-14-9l-207-349c-2-5-4-13-2-18 3-5 9-8 14-8l418 0c5 0 11 3 14 8 3 5 1 13-2 18z m-189 22l-64 0 0 48 64 0z m0 80l-64 0 0 144 64 0z"/>
<glyph glyph-name="edit" unicode="&#100;" d="M163 72l-91 91 251 250 90-90z m309 352l-48 48c-12 11-32 11-45-2l-45-45 91-91 45 45c13 13 13 33 2 45z m-408-275l-32-117 117 32z"/>
<glyph glyph-name="help-circled" unicode="&#99;" d="M256 480c-124 0-224-100-224-224 0-124 100-224 224-224 124 0 224 100 224 224 0 124-100 224-224 224z m20-327c0-18-13-29-31-28-16 0-29 12-28 30 0 18 14 29 30 29 17-1 30-13 29-31z m49 128c-4-6-14-14-25-23l-14-9c-6-5-10-11-12-17-1-4-2-13-2-19 0-1-1-4-5-4-3 0-35 0-39 0-4 0-4 2-4 4 0 16 3 30 10 41 9 15 35 30 35 30 4 3 7 6 10 10 4 6 8 13 8 20 0 8-2 16-8 23-6 7-13 11-25 11-13 0-21-6-26-15-5-8-4-18-4-27l-49 0c0 34 9 56 28 68 12 9 29 13 48 13 24 0 44-5 61-18 17-12 25-29 25-52 0-15-5-27-12-36z"/>
<glyph glyph-name="caret-left" unicode="&#101;" d="M347 384l0-256c0-5-1-9-5-13-4-3-8-5-13-5-5 0-9 2-13 5l-128 128c-3 4-5 8-5 13 0 5 2 9 5 13l128 128c4 3 8 5 13 5 5 0 9-2 13-5 4-4 5-8 5-13z"/>
<glyph glyph-name="caret-right" unicode="&#102;" d="M329 256c0-5-2-9-5-13l-128-128c-4-3-8-5-13-5-5 0-9 2-13 5-4 4-5 8-5 13l0 256c0 5 1 9 5 13 4 3 8 5 13 5 5 0 9-2 13-5l128-128c3-4 5-8 5-13z"/>
<glyph glyph-name="file-upload" unicode="&#104;" d="M192 171l128 0 0 128 85 0-149 149-149-149 85 0z m-85-43l298 0 0-43-298 0z"/>
<glyph glyph-name="cross" unicode="&#105;" d="M288 256l143 142c4 5 6 10 6 16 0 12-11 23-23 23-6 0-11-1-16-6l-142-142-142 142c-5 5-10 6-16 6-12 0-23-11-23-23 0-6 2-11 6-16l143-142-143-142c-4-5-6-10-6-16 0-12 11-23 23-23 6 0 11 1 16 6l142 142 142-142c5-5 10-6 16-6 12 0 23 11 23 23 0 6-2 11-6 16z"/>
<glyph glyph-name="lock" unicode="&#106;" d="M183 293l146 0 0 54c0 21-7 38-21 52-15 14-32 22-52 22-20 0-37-8-52-22-14-14-21-31-21-52z m238-28l0-164c0-8-3-15-8-20-6-5-12-8-20-8l-274 0c-8 0-14 3-20 8-5 5-8 12-8 20l0 164c0 8 3 14 8 20 6 5 12 8 20 8l9 0 0 54c0 35 13 66 38 91 25 25 55 37 90 37 35 0 65-12 90-37 25-25 38-56 38-91l0-54 9 0c8 0 14-3 20-8 5-6 8-12 8-20z"/>
<glyph glyph-name="unlock" unicode="&#107;" d="M494 347l0-73c0-5-2-9-6-13-3-3-8-5-13-5l-18 0c-5 0-9 2-13 5-3 4-5 8-5 13l0 73c0 21-7 38-22 52-14 14-31 22-51 22-20 0-38-8-52-22-14-14-21-31-21-52l0-54 27 0c8 0 14-3 19-8 6-6 8-12 8-20l0-164c0-8-2-15-8-20-5-5-11-8-19-8l-274 0c-8 0-14 3-20 8-5 5-8 12-8 20l0 164c0 8 3 14 8 20 6 5 12 8 20 8l192 0 0 54c0 36 12 66 37 91 25 25 55 37 91 37 35 0 65-12 90-37 25-25 38-55 38-91z"/>
<glyph glyph-name="plus-round" unicode="&#103;" d="M417 288l-129 0 0 129c0 17-14 31-32 31-18 0-32-14-32-31l0-129-129 0c-17 0-31-14-31-32 0-18 14-32 31-32l129 0 0-129c0-17 14-31 32-31 18 0 32 14 32 31l0 129 129 0c17 0 31 14 31 32 0 18-14 32-31 32z"/>
<glyph glyph-name="caret-up" unicode="&#108;" d="M402 165c0-5-2-10-5-13-4-4-8-6-13-6l-256 0c-5 0-9 2-13 6-3 3-5 8-5 13 0 5 2 9 5 12l128 128c4 4 8 6 13 6 5 0 9-2 13-6l128-128c3-3 5-7 5-12z"/>
<glyph glyph-name="trash-b" unicode="&#109;" d="M414 379c-3 9-4 14-4 14-3 9-9 9-19 10l-53 7c-7 1-7 1-10 7-8 20-11 31-20 31l-103 0c-10 0-13-11-21-31-3-6-3-6-9-7l-54-7c-9-1-16-2-19-11 0 0-1-5-4-13-3-12-4-11 7-11l302 0c11 0 10-1 7 11z m-35-43l-246 0c-17 0-18-2-17-15l19-242c2-13 3-15 17-15l208 0c14 0 16 2 17 15l19 242c1 13 0 15-17 15z"/>
<glyph glyph-name="times" unicode="&#112;" d="M426 134c0-7-3-14-8-19l-39-39c-5-5-12-8-20-8-7 0-14 3-19 8l-84 84-84-84c-5-5-12-8-19-8-8 0-15 3-20 8l-39 39c-5 5-8 12-8 19 0 8 3 14 8 20l84 84-84 84c-5 5-8 12-8 19 0 8 3 14 8 20l39 38c5 6 12 8 20 8 7 0 14-2 19-8l84-84 84 84c5 6 12 8 19 8 8 0 15-2 20-8l39-38c5-6 8-12 8-20 0-7-3-14-8-19l-84-84 84-84c5-6 8-12 8-20z"/>
<glyph glyph-name="clone" unicode="&#113;" d="M475 46l0 311c0 2 0 4-2 6-2 2-4 3-7 3l-311 0c-2 0-4-1-6-3-2-2-3-4-3-6l0-311c0-3 1-5 3-7 2-2 4-2 6-2l311 0c3 0 5 0 7 2 2 2 2 4 2 7z m37 311l0-311c0-13-4-24-13-33-9-9-20-13-33-13l-311 0c-12 0-23 4-32 13-9 9-13 20-13 33l0 311c0 12 4 23 13 32 9 9 20 13 32 13l311 0c13 0 24-4 33-13 9-9 13-20 13-32z m-110 109l0-45-36 0 0 45c0 3-1 5-3 7-2 2-4 2-6 2l-311 0c-3 0-5 0-7-2-2-2-2-4-2-7l0-311c0-2 0-4 2-6 2-2 4-3 7-3l45 0 0-36-45 0c-13 0-24 4-33 13-9 9-13 20-13 32l0 311c0 13 4 24 13 33 9 9 20 13 33 13l311 0c12 0 23-4 32-13 9-9 13-20 13-33z"/>
<glyph glyph-name="volume-off" unicode="&#114;" d="M366 411l0-310c0-5-2-10-6-13-3-4-8-6-13-6-5 0-9 2-12 6l-96 95-74 0c-5 0-10 2-13 5-4 4-6 8-6 13l0 110c0 5 2 9 6 13 3 3 8 5 13 5l74 0 96 95c3 4 7 6 12 6 5 0 10-2 13-6 4-3 6-8 6-13z"/>
<glyph glyph-name="volume-up" unicode="&#115;" d="M238 411l0-310c0-5-2-10-6-13-3-4-8-6-13-6-5 0-9 2-12 6l-96 95-74 0c-5 0-10 2-13 5-4 4-6 8-6 13l0 110c0 5 2 9 6 13 3 3 8 5 13 5l74 0 96 95c3 4 7 6 12 6 5 0 10-2 13-6 4-3 6-8 6-13z m109-155c0-14-4-28-12-40-8-13-19-22-32-27-2-1-4-2-7-2-5 0-9 2-13 6-3 3-5 8-5 13 0 4 1 7 3 10 2 3 5 5 8 7 4 2 7 4 10 7 3 2 6 5 8 10 3 4 4 10 4 16 0 6-1 12-4 16-2 5-5 8-8 10-3 3-6 5-10 7-3 2-6 4-8 7-2 3-3 6-3 10 0 5 2 10 5 13 4 4 8 6 13 6 3 0 5-1 7-2 13-5 24-14 32-26 8-13 12-27 12-41z m74 0c0-29-9-56-25-81-16-24-37-42-64-54-2-1-5-1-7-1-5 0-10 2-13 5-4 4-6 8-6 13 0 8 4 13 11 17 11 6 18 10 22 13 14 10 25 23 33 38 8 16 12 32 12 50 0 18-4 34-12 50-8 15-19 28-33 38-4 3-11 7-22 13-7 4-11 9-11 17 0 5 2 9 6 13 3 3 8 5 13 5 2 0 5 0 7-1 27-12 48-30 64-54 16-25 25-52 25-81z m73 0c0-44-12-84-37-121-24-36-56-63-96-81-3-1-5-1-8-1-5 0-9 2-12 5-4 4-6 8-6 13 0 7 4 13 11 17 2 1 4 2 7 3 3 1 5 2 6 3 9 5 17 10 24 15 23 17 41 39 54 64 14 26 20 54 20 83 0 29-6 57-20 83-13 25-31 47-54 64-7 5-15 10-24 15-1 1-3 2-6 3-3 1-5 2-7 3-7 4-11 10-11 17 0 5 2 9 6 13 3 3 7 5 12 5 3 0 5 0 8-1 40-18 72-45 96-81 25-37 37-77 37-121z"/>
<glyph glyph-name="ban" unicode="&#110;" d="M411 257c0 31-8 59-24 84l-216-215c26-17 55-25 85-25 21 0 41 4 60 12 20 8 36 19 50 33 14 14 25 31 33 50 8 19 12 40 12 61z m-285-86l216 216c-26 17-55 26-86 26-28 0-54-7-78-21-24-14-43-33-57-57-13-24-20-50-20-78 0-31 8-59 25-86z m349 86c0-30-5-59-17-86-12-27-27-51-47-70-19-20-43-35-70-47-27-12-55-17-85-17-30 0-58 5-85 17-27 12-51 27-70 47-20 19-35 43-47 70-12 27-17 56-17 86 0 30 5 58 17 85 12 28 27 51 47 71 19 19 43 35 70 46 27 12 55 18 85 18 30 0 58-6 85-18 27-11 51-27 70-46 20-20 35-43 47-71 12-27 17-55 17-85z"/>
<glyph glyph-name="search" unicode="&#111;" d="M450 117c10-12 11-22 3-32 0 0-24-24-24-24-12-10-24-10-35 0 0 0-97 98-97 98-25-15-52-22-80-22-44 0-82 16-114 49-33 32-49 70-49 114 0 44 16 81 46 112 31 31 68 47 112 47 44 0 82-16 115-49 32-32 49-70 49-114 0-30-8-58-24-83 0 0 98-96 98-96m-348 183c0-30 12-57 35-80 23-23 50-35 80-35 30 0 56 11 77 33 22 21 33 47 33 78 0 30-12 56-35 79-23 23-50 35-80 35-30 0-56-11-77-33-22-21-33-47-33-77"/>
</font></defs></svg>
