{
  "files": {
    "main.css": "./static/css/main.1399f58a.gz.css",
    "main.js": "./static/js/main.510fc660.gz.js",
    "static/css/960.8d21ca69.chunk.gz.css": "./static/css/960.8d21ca69.chunk.gz.css",
    "static/js/960.e6bf24ee.chunk.gz.js": "./static/js/960.e6bf24ee.chunk.gz.js",
    "static/css/153.be01229d.chunk.gz.css": "./static/css/153.be01229d.chunk.gz.css",
    "static/js/153.ae488076.chunk.gz.js": "./static/js/153.ae488076.chunk.gz.js",
    "static/js/678.951d2dfc.chunk.gz.js": "./static/js/678.951d2dfc.chunk.gz.js",
    "static/css/580.6d1d2753.chunk.gz.css": "./static/css/580.6d1d2753.chunk.gz.css",
    "static/js/580.c212ba5c.chunk.gz.js": "./static/js/580.c212ba5c.chunk.gz.js",
    "static/css/882.758588ad.chunk.gz.css": "./static/css/882.758588ad.chunk.gz.css",
    "static/js/882.8d34f4f7.chunk.gz.js": "./static/js/882.8d34f4f7.chunk.gz.js",
    "static/css/359.72549a7b.chunk.gz.css": "./static/css/359.72549a7b.chunk.gz.css",
    "static/js/753.2922a758.chunk.gz.js": "./static/js/753.2922a758.chunk.gz.js",
    "static/js/277.835456b3.chunk.gz.js": "./static/js/277.835456b3.chunk.gz.js",
    "static/js/25.eb688fc0.chunk.gz.js": "./static/js/25.eb688fc0.chunk.gz.js",
    "static/js/973.c23908b6.chunk.gz.js": "./static/js/973.c23908b6.chunk.gz.js",
    "static/js/833.708f79aa.chunk.gz.js": "./static/js/833.708f79aa.chunk.gz.js",
    "static/js/637.833ee7af.chunk.gz.js": "./static/js/637.833ee7af.chunk.gz.js",
    "static/js/696.476ce711.chunk.gz.js": "./static/js/696.476ce711.chunk.gz.js",
    "static/js/777.33f49231.chunk.gz.js": "./static/js/777.33f49231.chunk.gz.js",
    "static/js/806.f14aa270.chunk.gz.js": "./static/js/806.f14aa270.chunk.gz.js",
    "static/js/451.3929f9b8.chunk.gz.js": "./static/js/451.3929f9b8.chunk.gz.js",
    "static/js/949.c0516c9d.chunk.gz.js": "./static/js/949.c0516c9d.chunk.gz.js",
    "static/js/644.d69c65e7.chunk.gz.js": "./static/js/644.d69c65e7.chunk.gz.js",
    "static/js/300.99901ec3.chunk.gz.js": "./static/js/300.99901ec3.chunk.gz.js",
    "static/js/381.36273bad.chunk.gz.js": "./static/js/381.36273bad.chunk.gz.js",
    "static/js/506.52c33ff4.chunk.gz.js": "./static/js/506.52c33ff4.chunk.gz.js",
    "static/js/121.7741f075.chunk.gz.js": "./static/js/121.7741f075.chunk.gz.js",
    "static/js/923.544665e5.chunk.gz.js": "./static/js/923.544665e5.chunk.gz.js",
    "static/js/721.08a5b9ce.chunk.gz.js": "./static/js/721.08a5b9ce.chunk.gz.js",
    "static/js/588.fd6f08e6.chunk.gz.js": "./static/js/588.fd6f08e6.chunk.gz.js",
    "static/js/407.153516d5.chunk.gz.js": "./static/js/407.153516d5.chunk.gz.js",
    "static/css/411.ee889ee1.chunk.gz.css": "./static/css/411.ee889ee1.chunk.gz.css",
    "static/js/411.4808cae2.chunk.gz.js": "./static/js/411.4808cae2.chunk.gz.js",
    "static/js/903.6ce7b50a.chunk.gz.js": "./static/js/903.6ce7b50a.chunk.gz.js",
    "static/js/64.9e47c5f9.chunk.gz.js": "./static/js/64.9e47c5f9.chunk.gz.js",
    "static/js/994.c7b9dcd7.chunk.gz.js": "./static/js/994.c7b9dcd7.chunk.gz.js",
    "static/js/43.4e5437fa.chunk.gz.js": "./static/js/43.4e5437fa.chunk.gz.js",
    "static/js/657.d49182c9.chunk.gz.js": "./static/js/657.d49182c9.chunk.gz.js",
    "static/js/714.88787ae6.chunk.gz.js": "./static/js/714.88787ae6.chunk.gz.js",
    "static/js/107.833679df.chunk.gz.js": "./static/js/107.833679df.chunk.gz.js",
    "static/js/176.6fd2108f.chunk.gz.js": "./static/js/176.6fd2108f.chunk.gz.js",
    "static/js/999.e20d9ac8.chunk.gz.js": "./static/js/999.e20d9ac8.chunk.gz.js",
    "static/media/EmojiOneColor.woff2": "./static/media/EmojiOneColor.90ee5fb894c8d349bc54.woff2",
    "static/media/NotoColorEmoji-flags.woff2": "./static/media/NotoColorEmoji-flags.148141acfb7ce6e4f383.woff2",
    "static/media/glyphicons-halflings-regular.svg": "./static/media/glyphicons-halflings-regular.060b2710bdbbe3dfe48b.svg",
    "static/media/thumbnail-16x9.png": "./static/media/thumbnail-16x9.55487aa92288f20bf605.png",
    "static/media/blur.png": "./static/media/blur.46eb53806bdc475a1e90.png",
    "static/media/glyphicons-halflings-regular.ttf": "./static/media/glyphicons-halflings-regular.4692b9ec53fd5972caa2.ttf",
    "static/media/poll-question-english_16x9_2.png": "./static/media/poll-question-english_16x9_2.f29e26488d1786b15551.png",
    "static/media/url_english_16x9_2.png": "./static/media/url_english_16x9_2.c80d38f9faa1aa78233b.png",
    "static/media/poll-results-english_16x9_2.png": "./static/media/poll-results-english_16x9_2.f2159c5b707442bb550f.png",
    "static/media/video_english_16x9_2.png": "./static/media/video_english_16x9_2.e3e2e4817760fcb7bd45.png",
    "static/media/spinner.png": "./static/media/spinner.c1ad0a1f33117ece9e6f.png",
    "static/media/glyphicons-halflings-regular.woff": "./static/media/glyphicons-halflings-regular.82b1212e45a2bc35dd73.woff",
    "static/media/glyphicons-halflings-regular.eot": "./static/media/glyphicons-halflings-regular.5be1347c682810f199c7.eot",
    "static/media/glyphicons-halflings-regular.woff2": "./static/media/glyphicons-halflings-regular.be810be3a3e14c682a25.woff2",
    "static/media/donate.png": "./static/media/donate.a75cae43dd9318ffe72f.png",
    "static/media/pmxd.svg": "./static/media/pmxd.6db66a6834a0bcb6c547.svg",
    "static/media/pmxd.eot": "./static/media/pmxd.1edd3799c7de7ea88433.eot",
    "static/media/pmxd.ttf": "./static/media/pmxd.91b0ae1a909f31ce5797.ttf",
    "static/media/str-chat__connection-error.svg": "./static/media/str-chat__connection-error.90385cff548e3b068187c19d5f25e675.svg",
    "static/media/pmxd.woff": "./static/media/pmxd.4a6f67323c05cad702d6.woff",
    "static/media/drift_chat.svg": "./static/media/drift_chat.f0ebf41a4f7ef04153fe1a183febb02a.svg",
    "index.html": "./index.html",
    "static/media/reactions_tool.svg": "./static/media/reactions_tool.da8e3481108fca1b768e0ad8cf627110.svg",
    "static/media/getFetch.cjs": "./static/media/getFetch.c780682470504fffbd04.cjs"
  },
  "entrypoints": [
    "static/css/main.1399f58a.gz.css",
    "static/js/main.510fc660.gz.js"
  ]
}