{
  "files": {
    "main.css": "./static/css/main.3b465c49.gz.css",
    "main.js": "./static/js/main.41732400.gz.js",
    "static/css/960.b1c29a9c.chunk.gz.css": "./static/css/960.b1c29a9c.chunk.gz.css",
    "static/js/960.e6bf24ee.chunk.gz.js": "./static/js/960.e6bf24ee.chunk.gz.js",
    "static/css/153.1edd9b42.chunk.gz.css": "./static/css/153.1edd9b42.chunk.gz.css",
    "static/js/153.ae488076.chunk.gz.js": "./static/js/153.ae488076.chunk.gz.js",
    "static/js/562.5c52efa1.chunk.gz.js": "./static/js/562.5c52efa1.chunk.gz.js",
    "static/js/18.839c7b13.chunk.gz.js": "./static/js/18.839c7b13.chunk.gz.js",
    "static/js/678.7b8fdfa1.chunk.gz.js": "./static/js/678.7b8fdfa1.chunk.gz.js",
    "static/js/753.95ce83b4.chunk.gz.js": "./static/js/753.95ce83b4.chunk.gz.js",
    "static/js/277.835456b3.chunk.gz.js": "./static/js/277.835456b3.chunk.gz.js",
    "static/js/777.8e822f77.chunk.gz.js": "./static/js/777.8e822f77.chunk.gz.js",
    "static/js/949.8295b331.chunk.gz.js": "./static/js/949.8295b331.chunk.gz.js",
    "static/js/637.b20a15c5.chunk.gz.js": "./static/js/637.b20a15c5.chunk.gz.js",
    "static/js/25.0f5e6aff.chunk.gz.js": "./static/js/25.0f5e6aff.chunk.gz.js",
    "static/js/806.3b18fcae.chunk.gz.js": "./static/js/806.3b18fcae.chunk.gz.js",
    "static/js/451.18cd7ee9.chunk.gz.js": "./static/js/451.18cd7ee9.chunk.gz.js",
    "static/js/644.bcfbfb49.chunk.gz.js": "./static/js/644.bcfbfb49.chunk.gz.js",
    "static/js/670.a8c2a71a.chunk.gz.js": "./static/js/670.a8c2a71a.chunk.gz.js",
    "static/js/973.7e6b9041.chunk.gz.js": "./static/js/973.7e6b9041.chunk.gz.js",
    "static/js/833.91743faa.chunk.gz.js": "./static/js/833.91743faa.chunk.gz.js",
    "static/js/381.706f71ed.chunk.gz.js": "./static/js/381.706f71ed.chunk.gz.js",
    "static/js/506.e49c4fef.chunk.gz.js": "./static/js/506.e49c4fef.chunk.gz.js",
    "static/js/121.7741f075.chunk.gz.js": "./static/js/121.7741f075.chunk.gz.js",
    "static/js/923.16c55338.chunk.gz.js": "./static/js/923.16c55338.chunk.gz.js",
    "static/js/721.bc4a385c.chunk.gz.js": "./static/js/721.bc4a385c.chunk.gz.js",
    "static/css/411.ee889ee1.chunk.gz.css": "./static/css/411.ee889ee1.chunk.gz.css",
    "static/js/411.866600f3.chunk.gz.js": "./static/js/411.866600f3.chunk.gz.js",
    "static/js/994.8a6f8a65.chunk.gz.js": "./static/js/994.8a6f8a65.chunk.gz.js",
    "static/js/43.4e5437fa.chunk.gz.js": "./static/js/43.4e5437fa.chunk.gz.js",
    "static/js/657.1affd2ac.chunk.gz.js": "./static/js/657.1affd2ac.chunk.gz.js",
    "static/js/176.4f87f3ad.chunk.gz.js": "./static/js/176.4f87f3ad.chunk.gz.js",
    "static/js/999.95b56db1.chunk.gz.js": "./static/js/999.95b56db1.chunk.gz.js",
    "static/media/EmojiOneColor.woff2": "./static/media/EmojiOneColor.90ee5fb894c8d349bc54.woff2",
    "static/media/NotoColorEmoji-flags.woff2": "./static/media/NotoColorEmoji-flags.148141acfb7ce6e4f383.woff2",
    "static/media/BannerTemplateBackground.png": "./static/media/BannerTemplateBackground.e582e7a18e8535592d9e.png",
    "static/media/glyphicons-halflings-regular.svg": "./static/media/glyphicons-halflings-regular.060b2710bdbbe3dfe48b.svg",
    "static/media/thumbnail-16x9.png": "./static/media/thumbnail-16x9.55487aa92288f20bf605.png",
    "static/media/blur.png": "./static/media/blur.46eb53806bdc475a1e90.png",
    "static/media/glyphicons-halflings-regular.ttf": "./static/media/glyphicons-halflings-regular.4692b9ec53fd5972caa2.ttf",
    "static/media/poll-question-english_16x9_2.png": "./static/media/poll-question-english_16x9_2.f29e26488d1786b15551.png",
    "static/media/url_english_16x9_2.png": "./static/media/url_english_16x9_2.c80d38f9faa1aa78233b.png",
    "static/media/poll-results-english_16x9_2.png": "./static/media/poll-results-english_16x9_2.f2159c5b707442bb550f.png",
    "static/media/video_english_16x9_2.png": "./static/media/video_english_16x9_2.e3e2e4817760fcb7bd45.png",
    "static/media/spinner.png": "./static/media/spinner.c1ad0a1f33117ece9e6f.png",
    "static/media/glyphicons-halflings-regular.woff": "./static/media/glyphicons-halflings-regular.82b1212e45a2bc35dd73.woff",
    "static/media/glyphicons-halflings-regular.eot": "./static/media/glyphicons-halflings-regular.5be1347c682810f199c7.eot",
    "static/media/glyphicons-halflings-regular.woff2": "./static/media/glyphicons-halflings-regular.be810be3a3e14c682a25.woff2",
    "static/media/donate.png": "./static/media/donate.a75cae43dd9318ffe72f.png",
    "static/media/pmxd.svg": "./static/media/pmxd.6db66a6834a0bcb6c547.svg",
    "static/media/pmxd.eot": "./static/media/pmxd.1edd3799c7de7ea88433.eot",
    "static/media/pmxd.ttf": "./static/media/pmxd.91b0ae1a909f31ce5797.ttf",
    "static/media/str-chat__connection-error.svg": "./static/media/str-chat__connection-error.90385cff548e3b068187c19d5f25e675.svg",
    "static/media/pmxd.woff": "./static/media/pmxd.4a6f67323c05cad702d6.woff",
    "static/media/drift_chat.svg": "./static/media/drift_chat.f0ebf41a4f7ef04153fe1a183febb02a.svg",
    "index.html": "./index.html",
    "static/media/reactions_tool.svg": "./static/media/reactions_tool.da8e3481108fca1b768e0ad8cf627110.svg",
    "static/media/getFetch.cjs": "./static/media/getFetch.c780682470504fffbd04.cjs"
  },
  "entrypoints": [
    "static/css/main.3b465c49.gz.css",
    "static/js/main.41732400.gz.js"
  ]
}