{
  "files": {
    "main.css": "./static/css/main.8296ef7a.gz.css",
    "main.js": "./static/js/main.785195eb.gz.js",
    "static/css/960.bbf7eaa2.chunk.gz.css": "./static/css/960.bbf7eaa2.chunk.gz.css",
    "static/js/960.e6bf24ee.chunk.gz.js": "./static/js/960.e6bf24ee.chunk.gz.js",
    "static/css/153.34dc3112.chunk.gz.css": "./static/css/153.34dc3112.chunk.gz.css",
    "static/js/153.ae488076.chunk.gz.js": "./static/js/153.ae488076.chunk.gz.js",
    "static/js/457.24cfb70a.chunk.gz.js": "./static/js/457.24cfb70a.chunk.gz.js",
    "static/js/18.839c7b13.chunk.gz.js": "./static/js/18.839c7b13.chunk.gz.js",
    "static/js/678.73469ee8.chunk.gz.js": "./static/js/678.73469ee8.chunk.gz.js",
    "static/js/753.cc597588.chunk.gz.js": "./static/js/753.cc597588.chunk.gz.js",
    "static/js/277.06a3f11d.chunk.gz.js": "./static/js/277.06a3f11d.chunk.gz.js",
    "static/js/777.592c028e.chunk.gz.js": "./static/js/777.592c028e.chunk.gz.js",
    "static/js/949.bb4555e9.chunk.gz.js": "./static/js/949.bb4555e9.chunk.gz.js",
    "static/js/637.6379dd57.chunk.gz.js": "./static/js/637.6379dd57.chunk.gz.js",
    "static/js/25.0f5e6aff.chunk.gz.js": "./static/js/25.0f5e6aff.chunk.gz.js",
    "static/js/806.3b18fcae.chunk.gz.js": "./static/js/806.3b18fcae.chunk.gz.js",
    "static/js/451.18cd7ee9.chunk.gz.js": "./static/js/451.18cd7ee9.chunk.gz.js",
    "static/js/644.2177d358.chunk.gz.js": "./static/js/644.2177d358.chunk.gz.js",
    "static/js/534.4858e597.chunk.gz.js": "./static/js/534.4858e597.chunk.gz.js",
    "static/js/973.9ed039aa.chunk.gz.js": "./static/js/973.9ed039aa.chunk.gz.js",
    "static/js/833.ab12e21a.chunk.gz.js": "./static/js/833.ab12e21a.chunk.gz.js",
    "static/js/381.706f71ed.chunk.gz.js": "./static/js/381.706f71ed.chunk.gz.js",
    "static/js/506.e49c4fef.chunk.gz.js": "./static/js/506.e49c4fef.chunk.gz.js",
    "static/js/121.7741f075.chunk.gz.js": "./static/js/121.7741f075.chunk.gz.js",
    "static/js/923.8b2b8a6b.chunk.gz.js": "./static/js/923.8b2b8a6b.chunk.gz.js",
    "static/js/325.8d4ef294.chunk.gz.js": "./static/js/325.8d4ef294.chunk.gz.js",
    "static/css/411.4b943192.chunk.gz.css": "./static/css/411.4b943192.chunk.gz.css",
    "static/js/411.c21272fd.chunk.gz.js": "./static/js/411.c21272fd.chunk.gz.js",
    "static/js/994.83fc6b26.chunk.gz.js": "./static/js/994.83fc6b26.chunk.gz.js",
    "static/js/43.4e5437fa.chunk.gz.js": "./static/js/43.4e5437fa.chunk.gz.js",
    "static/js/657.2778300f.chunk.gz.js": "./static/js/657.2778300f.chunk.gz.js",
    "static/js/910.c4a7080a.chunk.gz.js": "./static/js/910.c4a7080a.chunk.gz.js",
    "static/js/999.a6d81cff.chunk.gz.js": "./static/js/999.a6d81cff.chunk.gz.js",
    "static/media/EmojiOneColor.woff2": "./static/media/EmojiOneColor.90ee5fb894c8d349bc54.woff2",
    "static/media/NotoColorEmoji-flags.woff2": "./static/media/NotoColorEmoji-flags.148141acfb7ce6e4f383.woff2",
    "static/media/BannerTemplateBackground.png": "./static/media/BannerTemplateBackground.68255673fa318ea9c79b.png",
    "static/media/glyphicons-halflings-regular.svg": "./static/media/glyphicons-halflings-regular.060b2710bdbbe3dfe48b.svg",
    "static/media/thumbnail-16x9.png": "./static/media/thumbnail-16x9.55487aa92288f20bf605.png",
    "static/media/blur.png": "./static/media/blur.46eb53806bdc475a1e90.png",
    "static/media/glyphicons-halflings-regular.ttf": "./static/media/glyphicons-halflings-regular.4692b9ec53fd5972caa2.ttf",
    "static/media/poll-question-english_16x9_2.png": "./static/media/poll-question-english_16x9_2.f29e26488d1786b15551.png",
    "static/media/url_english_16x9_2.png": "./static/media/url_english_16x9_2.c80d38f9faa1aa78233b.png",
    "static/media/poll-results-english_16x9_2.png": "./static/media/poll-results-english_16x9_2.f2159c5b707442bb550f.png",
    "static/media/video_english_16x9_2.png": "./static/media/video_english_16x9_2.e3e2e4817760fcb7bd45.png",
    "static/media/spinner.png": "./static/media/spinner.c1ad0a1f33117ece9e6f.png",
    "static/media/glyphicons-halflings-regular.woff": "./static/media/glyphicons-halflings-regular.82b1212e45a2bc35dd73.woff",
    "static/media/glyphicons-halflings-regular.eot": "./static/media/glyphicons-halflings-regular.5be1347c682810f199c7.eot",
    "static/media/glyphicons-halflings-regular.woff2": "./static/media/glyphicons-halflings-regular.be810be3a3e14c682a25.woff2",
    "static/media/donate.png": "./static/media/donate.a75cae43dd9318ffe72f.png",
    "static/media/pmxd.svg": "./static/media/pmxd.6db66a6834a0bcb6c547.svg",
    "static/media/pmxd.eot": "./static/media/pmxd.1edd3799c7de7ea88433.eot",
    "static/media/pmxd.ttf": "./static/media/pmxd.91b0ae1a909f31ce5797.ttf",
    "static/media/str-chat__connection-error.svg": "./static/media/str-chat__connection-error.90385cff548e3b068187c19d5f25e675.svg",
    "static/media/pmxd.woff": "./static/media/pmxd.4a6f67323c05cad702d6.woff",
    "static/media/drift_chat.svg": "./static/media/drift_chat.f0ebf41a4f7ef04153fe1a183febb02a.svg",
    "index.html": "./index.html",
    "static/media/reactions_tool.svg": "./static/media/reactions_tool.da8e3481108fca1b768e0ad8cf627110.svg",
    "static/media/getFetch.cjs": "./static/media/getFetch.c780682470504fffbd04.cjs"
  },
  "entrypoints": [
    "static/css/main.8296ef7a.gz.css",
    "static/js/main.785195eb.gz.js"
  ]
}