/SessionExpiredError.html
/asset-manifest.json
/config/dev-env-properties.json
/config/eu-env-properties.json
/config/prod-env-properties.json
/config/qa-env-properties.json
/favicon.ico
/images/bg_1.jpg
/images/bg_2.jpg
/images/bg_3.jpg
/images/bg_4.jpg
/images/bg_5.jpg
/images/bg_6.jpg
/images/bg_7.jpg
/images/bg_8.jpg
/index.html
/js/media_player/opus-stream-decoder.es6.js
/js/media_player/opus-stream-decoder.wasm
/js/media_player/worker-decoder-opus.js
/js/media_player/worker-decoder-opus.original.js
/js/vumeter/awp_vumeter_class.js
/locales/bg.json
/locales/cestina.json
/locales/da.json
/locales/de.json
/locales/el.json
/locales/elitestudio.json
/locales/en.json
/locales/es.json
/locales/et.json
/locales/fi.json
/locales/fr.json
/locales/hrvatski.json
/locales/hu.json
/locales/id.json
/locales/it.json
/locales/iw.json
/locales/ja.json
/locales/ko.json
/locales/lv.json
/locales/nl.json
/locales/no.json
/locales/pl.json
/locales/pt.json
/locales/ro.json
/locales/ru.json
/locales/sk.json
/locales/sl.json
/locales/sr.json
/locales/svenska.json
/locales/tr.json
/locales/uk.json
/locales/vi.json
/locales/zh.json
/logo192.png
/logo512.png
/manifest.json
/robots.txt
/sfdcHelpPresentRedirect.html
/static/css/153.ea140a2b.chunk.css
/static/css/153.ea140a2b.chunk.gz.css
/static/css/411.4008e4ba.chunk.css
/static/css/411.4008e4ba.chunk.gz.css
/static/css/960.48b33fec.chunk.css
/static/css/960.48b33fec.chunk.gz.css
/static/css/main.c1e6cf2f.css
/static/css/main.c1e6cf2f.gz.css
/static/js/121.7741f075.chunk.gz.js
/static/js/121.7741f075.chunk.js
/static/js/153.ae488076.chunk.gz.js
/static/js/153.ae488076.chunk.js
/static/js/176.8e5f30b5.chunk.gz.js
/static/js/176.8e5f30b5.chunk.js
/static/js/18.839c7b13.chunk.gz.js
/static/js/18.839c7b13.chunk.js
/static/js/25.0f5e6aff.chunk.gz.js
/static/js/25.0f5e6aff.chunk.js
/static/js/277.835456b3.chunk.gz.js
/static/js/277.835456b3.chunk.gz.js.LICENSE.txt
/static/js/277.835456b3.chunk.js
/static/js/277.835456b3.chunk.js.LICENSE.txt
/static/js/300.0f248f15.chunk.gz.js
/static/js/300.0f248f15.chunk.js
/static/js/381.36273bad.chunk.gz.js
/static/js/381.36273bad.chunk.js
/static/js/411.20f55a83.chunk.gz.js
/static/js/411.20f55a83.chunk.gz.js.LICENSE.txt
/static/js/411.20f55a83.chunk.js
/static/js/411.20f55a83.chunk.js.LICENSE.txt
/static/js/43.4e5437fa.chunk.gz.js
/static/js/43.4e5437fa.chunk.js
/static/js/451.18cd7ee9.chunk.gz.js
/static/js/451.18cd7ee9.chunk.js
/static/js/506.c050a932.chunk.gz.js
/static/js/506.c050a932.chunk.js
/static/js/562.b1e5c009.chunk.gz.js
/static/js/562.b1e5c009.chunk.gz.js.LICENSE.txt
/static/js/562.b1e5c009.chunk.js
/static/js/562.b1e5c009.chunk.js.LICENSE.txt
/static/js/637.80ccac5d.chunk.gz.js
/static/js/637.80ccac5d.chunk.js
/static/js/644.a14cd401.chunk.gz.js
/static/js/644.a14cd401.chunk.js
/static/js/657.1affd2ac.chunk.gz.js
/static/js/657.1affd2ac.chunk.js
/static/js/678.ff749269.chunk.gz.js
/static/js/678.ff749269.chunk.js
/static/js/721.b26257e0.chunk.gz.js
/static/js/721.b26257e0.chunk.gz.js.LICENSE.txt
/static/js/721.b26257e0.chunk.js
/static/js/721.b26257e0.chunk.js.LICENSE.txt
/static/js/753.2922a758.chunk.gz.js
/static/js/753.2922a758.chunk.gz.js.LICENSE.txt
/static/js/753.2922a758.chunk.js
/static/js/753.2922a758.chunk.js.LICENSE.txt
/static/js/777.8e822f77.chunk.gz.js
/static/js/777.8e822f77.chunk.js
/static/js/806.3b18fcae.chunk.gz.js
/static/js/806.3b18fcae.chunk.js
/static/js/833.98d4b8d8.chunk.gz.js
/static/js/833.98d4b8d8.chunk.js
/static/js/923.749fca35.chunk.gz.js
/static/js/923.749fca35.chunk.js
/static/js/949.81321cec.chunk.gz.js
/static/js/949.81321cec.chunk.js
/static/js/960.e6bf24ee.chunk.gz.js
/static/js/960.e6bf24ee.chunk.js
/static/js/973.9eea8b39.chunk.gz.js
/static/js/973.9eea8b39.chunk.js
/static/js/994.c7b9dcd7.chunk.gz.js
/static/js/994.c7b9dcd7.chunk.gz.js.LICENSE.txt
/static/js/994.c7b9dcd7.chunk.js
/static/js/994.c7b9dcd7.chunk.js.LICENSE.txt
/static/js/999.b8f966f5.chunk.gz.js
/static/js/999.b8f966f5.chunk.js
/static/js/main.82296456.gz.js
/static/js/main.82296456.gz.js.LICENSE.txt
/static/js/main.82296456.js
/static/js/main.82296456.js.LICENSE.txt
/static/media/EmojiOneColor.90ee5fb894c8d349bc54.woff2
/static/media/NotoColorEmoji-flags.148141acfb7ce6e4f383.woff2
/static/media/blur.46eb53806bdc475a1e90.png
/static/media/donate.a75cae43dd9318ffe72f.png
/static/media/drift_chat.f0ebf41a4f7ef04153fe1a183febb02a.svg
/static/media/getFetch.c780682470504fffbd04.cjs
/static/media/glyphicons-halflings-regular.060b2710bdbbe3dfe48b.svg
/static/media/glyphicons-halflings-regular.4692b9ec53fd5972caa2.ttf
/static/media/glyphicons-halflings-regular.5be1347c682810f199c7.eot
/static/media/glyphicons-halflings-regular.82b1212e45a2bc35dd73.woff
/static/media/glyphicons-halflings-regular.be810be3a3e14c682a25.woff2
/static/media/pmxd.1edd3799c7de7ea88433.eot
/static/media/pmxd.4a6f67323c05cad702d6.woff
/static/media/pmxd.6db66a6834a0bcb6c547.svg
/static/media/pmxd.91b0ae1a909f31ce5797.ttf
/static/media/poll-question-english_16x9_2.f29e26488d1786b15551.png
/static/media/poll-results-english_16x9_2.f2159c5b707442bb550f.png
/static/media/reactions_tool.da8e3481108fca1b768e0ad8cf627110.svg
/static/media/spinner.c1ad0a1f33117ece9e6f.png
/static/media/str-chat__connection-error.90385cff548e3b068187c19d5f25e675.svg
/static/media/thumbnail-16x9.55487aa92288f20bf605.png
/static/media/url_english_16x9_2.c80d38f9faa1aa78233b.png
/static/media/video_english_16x9_2.e3e2e4817760fcb7bd45.png
/sw.js
/asset-list.log
