/*!
      * The buffer module from node.js, for the browser.
      *
      * @author   Feross Aboukhadijeh <feross@feross.org> <http://feross.org>
      * @license  MIT
      */

/*! https://mths.be/punycode v1.4.1 by @mathias */
